<svg width="24" height="24" viewBox="0 0 24 24" fill="none" xmlns="http://www.w3.org/2000/svg">
<path fill-rule="evenodd" clip-rule="evenodd" d="M9.46153 6.83071H20.1137L18.4097 13.722H9.89188C8.79257 13.722 7.84429 12.951 7.60625 11.8707L6.21159 5.5235C6.01332 4.62373 5.22523 3.98621 4.31659 3.98621H3.03889C2.81473 3.99432 2.60188 4.08981 2.44515 4.25342C2.28764 4.41784 2.19922 4.63817 2.19922 4.86789C2.19922 5.09762 2.28764 5.31795 2.44515 5.48237C2.60188 5.64597 2.81473 5.74147 3.03889 5.74958H4.47739L5.90769 12.2539C6.10927 13.1711 6.61425 13.991 7.33873 14.5783C8.06315 15.1657 8.96378 15.4855 9.89186 15.4853H18.2532C18.6855 15.4854 19.1057 15.3394 19.4469 15.0701C19.7881 14.8008 20.0308 14.4236 20.136 13.9982L21.741 7.50918C21.8128 7.21937 21.8183 6.91673 21.757 6.62444C21.6957 6.33215 21.5693 6.05799 21.3876 5.82275C21.2059 5.58752 20.9737 5.39744 20.7087 5.2668C20.4437 5.13617 20.1529 5.06837 19.8582 5.06846H9.46153C9.23996 5.0798 9.03059 5.17646 8.87662 5.33935C8.72158 5.50337 8.63473 5.7219 8.63473 5.94958C8.63473 6.17726 8.72158 6.3958 8.87662 6.55981C9.03059 6.7227 9.23997 6.81936 9.46153 6.83071Z" fill="#4F4F4F"/>
<circle cx="17.4138" cy="18.4066" r="1.60716" fill="#4F4F4F"/>
<circle cx="9.62084" cy="18.4066" r="1.60716" fill="#4F4F4F"/>
</svg>
