<svg width="24" height="24" viewBox="0 0 24 24" fill="none" xmlns="http://www.w3.org/2000/svg">
<path d="M20.7906 7.09366C20.504 6.42685 20.0907 5.8226 19.5738 5.31472C19.0565 4.80533 18.4467 4.40052 17.7774 4.12231C17.0834 3.83268 16.339 3.68443 15.5875 3.68617C14.5332 3.68617 13.5045 3.97622 12.6106 4.52408C12.3967 4.65514 12.1936 4.79909 12.0011 4.95592C11.8086 4.79909 11.6055 4.65514 11.3916 4.52408C10.4977 3.97622 9.46902 3.68617 8.4147 3.68617C7.65551 3.68617 6.91984 3.83227 6.2248 4.12231C5.55329 4.40162 4.94807 4.80338 4.4284 5.31472C3.91086 5.82203 3.49743 6.42642 3.21155 7.09366C2.91429 7.78762 2.76245 8.52455 2.76245 9.28297C2.76245 9.99841 2.90787 10.7439 3.19658 11.5023C3.43824 12.1361 3.78469 12.7936 4.22737 13.4575C4.92883 14.5081 5.89332 15.6038 7.09093 16.7146C9.07552 18.5558 11.0409 19.8277 11.1243 19.8793L11.6311 20.2058C11.8557 20.3498 12.1444 20.3498 12.3689 20.2058L12.8758 19.8793C12.9592 19.8256 14.9224 18.5558 16.9091 16.7146C18.1067 15.6038 19.0712 14.5081 19.7727 13.4575C20.2154 12.7936 20.5639 12.1361 20.8035 11.5023C21.0922 10.7439 21.2376 9.99841 21.2376 9.28297C21.2397 8.52455 21.0879 7.78762 20.7906 7.09366ZM12.0011 18.5064C12.0011 18.5064 4.38777 13.6057 4.38777 9.28297C4.38777 7.09366 6.19059 5.31902 8.4147 5.31902C9.978 5.31902 11.3339 6.1956 12.0011 7.47609C12.6683 6.1956 14.0242 5.31902 15.5875 5.31902C17.8116 5.31902 19.6144 7.09366 19.6144 9.28297C19.6144 13.6057 12.0011 18.5064 12.0011 18.5064Z" fill="#4F4F4F"/>
</svg>
