<svg width="20" height="16" viewBox="0 0 20 16" fill="none" xmlns="http://www.w3.org/2000/svg">
<path d="M12.2864 0.508759L19.1926 7.41501L19.75 8.00001L19.1918 8.58501L12.2856 15.4913L11.1156 14.3213L16.6284 8.81251H0.326374V7.18751H16.6276L11.1172 1.67876L12.2872 0.508759H12.2864Z" fill="#154F40"/>
</svg>
