<svg width="22" height="20" viewBox="0 0 22 20" fill="none" xmlns="http://www.w3.org/2000/svg">
<path opacity="0.9" d="M21.4677 4.0986C21.1264 3.29655 20.6342 2.56975 20.0187 1.95886C19.4028 1.34616 18.6766 0.85925 17.8796 0.524616C17.0532 0.176245 16.1668 -0.002072 15.2719 1.81642e-05C14.0164 1.81642e-05 12.7915 0.348889 11.727 1.00787C11.4724 1.1655 11.2305 1.33865 11.0013 1.5273C10.7721 1.33865 10.5301 1.1655 10.2755 1.00787C9.21101 0.348889 7.9861 1.81642e-05 6.73063 1.81642e-05C5.82659 1.81642e-05 4.95057 0.175746 4.12293 0.524616C3.3233 0.860566 2.60261 1.34382 1.98379 1.95886C1.36751 2.56906 0.875206 3.29604 0.534783 4.0986C0.180808 4.93331 0 5.8197 0 6.73193C0 7.59248 0.173168 8.4892 0.516957 9.40144C0.804722 10.1638 1.21727 10.9546 1.74441 11.7531C2.57969 13.0168 3.7282 14.3347 5.15429 15.6708C7.51753 17.8855 9.85784 19.4153 9.95716 19.4773L10.5607 19.8701C10.8281 20.0433 11.1719 20.0433 11.4393 19.8701L12.0428 19.4773C12.1421 19.4127 14.4799 17.8855 16.8457 15.6708C18.2718 14.3347 19.4203 13.0168 20.2556 11.7531C20.7827 10.9546 21.1978 10.1638 21.483 9.40144C21.8268 8.4892 22 7.59248 22 6.73193C22.0025 5.8197 21.8217 4.93331 21.4677 4.0986ZM11.0013 17.826C11.0013 17.826 1.93541 11.9314 1.93541 6.73193C1.93541 4.0986 4.08218 1.96403 6.73063 1.96403C8.59219 1.96403 10.2067 3.0184 11.0013 4.5586C11.7958 3.0184 13.4103 1.96403 15.2719 1.96403C17.9203 1.96403 20.0671 4.0986 20.0671 6.73193C20.0671 11.9314 11.0013 17.826 11.0013 17.826Z" fill="white"/>
<path opacity="0.9" d="M11 18C11 18 2 12.0541 2 6.80938C2 4.15314 4.13118 2 6.76039 2C8.60843 2 10.2112 3.06354 11 4.61714C11.7888 3.06354 13.3916 2 15.2396 2C17.8688 2 20 4.15314 20 6.80938C20 12.0541 11 18 11 18Z" fill="#FF3636"/>
</svg>
