<svg width="98" height="111" viewBox="0 0 98 111" fill="none" xmlns="http://www.w3.org/2000/svg">
<path d="M0.794219 99.784C2.01822 101.92 4.22622 103.288 6.91422 103.288C10.0822 103.288 12.4582 101.44 12.4582 98.536C12.4582 96.4 11.2102 95.08 8.54622 93.904L6.74622 93.112C5.40222 92.512 4.89822 92.128 4.89822 91.288C4.89822 90.304 5.73822 89.752 6.86622 89.752C8.06622 89.752 9.07422 90.352 9.89022 91.576L12.0982 89.872C11.1142 88.048 9.29022 86.872 6.86622 86.872C3.86622 86.872 1.61022 88.648 1.61022 91.36C1.61022 93.472 3.02622 94.84 5.45022 95.92L7.15422 96.688C8.66622 97.384 9.17022 97.72 9.17022 98.656C9.17022 99.736 8.33022 100.408 6.91422 100.408C5.18622 100.408 4.05822 99.52 3.02622 98.104L0.794219 99.784ZM22.6033 100.288C21.7633 100.36 21.2593 100.384 21.0673 100.384C19.5313 100.384 18.8593 99.88 18.8593 98.536V93.856H22.2193V91.12H18.8593V88.12H15.6193V91.12H13.7473V93.856H15.6193V98.824C15.6193 101.8 17.3713 103.288 20.3713 103.288C21.0913 103.288 21.8353 103.192 22.6033 103V100.288ZM34.9157 95.944C34.9157 92.656 32.9237 90.856 29.8277 90.856C27.7397 90.856 26.0117 91.672 24.6437 93.304L26.3237 95.296C27.3797 94.168 28.2437 93.664 29.4677 93.664C30.9077 93.664 31.6757 94.432 31.6757 95.752V96.28H28.6997C25.9397 96.28 24.2117 97.6 24.2117 99.736C24.2117 101.824 25.7957 103.288 28.3157 103.288C29.8277 103.288 31.0757 102.736 31.9397 101.848V103H34.9157V95.944ZM31.6757 98.56C31.6757 99.928 30.5957 100.912 29.1797 100.912C28.1477 100.912 27.4757 100.408 27.4757 99.616C27.4757 98.824 28.0757 98.416 29.1317 98.416H31.6757V98.56ZM48.9538 95.632C48.9538 92.752 47.2498 90.856 44.4898 90.856C43.0738 90.856 41.8498 91.36 41.0098 92.2V91.12H38.0338V103H41.2738V96.064C41.2738 94.696 42.2098 93.76 43.5298 93.76C44.8498 93.76 45.7378 94.696 45.7378 96.064V103H48.9538V95.632ZM60.7128 85V92.272C59.8488 91.336 58.6728 90.856 57.1608 90.856C53.8488 90.856 51.4008 93.496 51.4008 97.072C51.4008 100.648 53.8488 103.288 57.1608 103.288C58.7928 103.288 60.1848 102.664 60.9768 101.536V103H63.9528V85H60.7128ZM60.7608 97.072C60.7608 99.208 59.3928 100.336 57.7608 100.336C56.0088 100.336 54.6888 99.04 54.6888 97.048C54.6888 95.104 56.0328 93.784 57.7608 93.784C59.3928 93.784 60.7608 94.96 60.7608 97.072ZM77.1266 95.944C77.1266 92.656 75.1346 90.856 72.0386 90.856C69.9506 90.856 68.2226 91.672 66.8546 93.304L68.5346 95.296C69.5906 94.168 70.4546 93.664 71.6786 93.664C73.1186 93.664 73.8866 94.432 73.8866 95.752V96.28H70.9106C68.1506 96.28 66.4226 97.6 66.4226 99.736C66.4226 101.824 68.0066 103.288 70.5266 103.288C72.0386 103.288 73.2866 102.736 74.1506 101.848V103H77.1266V95.944ZM73.8866 98.56C73.8866 99.928 72.8066 100.912 71.3906 100.912C70.3586 100.912 69.6866 100.408 69.6866 99.616C69.6866 98.824 70.2866 98.416 71.3426 98.416H73.8866V98.56ZM87.5407 91.12C87.2287 91.024 86.8927 90.976 86.4847 90.976C85.1647 90.976 84.0127 91.552 83.2207 92.536V91.12H80.2447V103H83.4847V97.072C83.4847 95.032 84.7327 93.976 86.6767 93.976H87.5407V91.12ZM97.1814 100.288C96.3414 100.36 95.8374 100.384 95.6454 100.384C94.1094 100.384 93.4374 99.88 93.4374 98.536V93.856H96.7974V91.12H93.4374V88.12H90.1974V91.12H88.3254V93.856H90.1974V98.824C90.1974 101.8 91.9494 103.288 94.9494 103.288C95.6694 103.288 96.4134 103.192 97.1814 103V100.288Z" fill="#4F4F4F"/>
<g clip-path="url(#clip0)">
<path fill-rule="evenodd" clip-rule="evenodd" d="M82.1971 28.7472C86.4995 28.7472 89.9998 32.2475 89.9998 36.5498C89.9998 40.2785 87.3703 43.4021 83.8688 44.1698C83.1762 49.8853 81.838 56.849 79.2543 62.4157H18.7452C16.1615 56.849 14.8233 49.8853 14.1307 44.1698C10.6292 43.4028 7.99976 40.2785 7.99976 36.5498C7.99976 32.2475 11.5 28.7472 15.8024 28.7472C20.1047 28.7472 23.605 32.2475 23.605 36.5498C23.605 38.6181 22.7942 40.4999 21.4754 41.8975C23.8208 44.5213 27.2266 46.1773 31.0141 46.1773C37.1451 46.1773 42.2801 41.8431 43.5225 36.0787C42.0886 34.663 41.1971 32.6979 41.1971 30.5283C41.1971 26.226 44.6974 22.7257 48.9998 22.7257C53.3021 22.7257 56.8024 26.226 56.8024 30.5283C56.8024 32.6979 55.9115 34.663 54.477 36.0787C55.7194 41.8431 60.8544 46.1773 66.9854 46.1773C70.7729 46.1773 74.1787 44.5213 76.5241 41.8975C75.2053 40.4999 74.3952 38.6181 74.3952 36.5498C74.3952 32.2475 77.8948 28.7472 82.1971 28.7472ZM20.4392 72.7526V67.2454H77.56V72.7526C77.56 74.0864 76.4789 75.1675 75.1451 75.1675H22.8541C21.5203 75.1675 20.4392 74.0864 20.4392 72.7526Z" fill="#4F4F4F"/>
</g>
<defs>
<clipPath id="clip0">
<rect x="8.04468" width="81.9104" height="84" fill="white"/>
</clipPath>
</defs>
</svg>
